﻿{
    "files": [
        {
            "source": "../testResources/baldeagle.jpg",
            "type": "IMAGE",
            "size": 270.336
        },
        {
            "source": "../testResources/barnowl.jpg",
            "type": "IMAGE",
            "size": 491.52
        }
    ]
}