,Question,A1,V1,A2,V2,A3,V3,A4,V4,A5,V5,A6,V6
Q1,placid,wet,0,calm,1,excited,0,scared,0,busy,0,angry,0
Q2,crimp,cut,0,burn,0,fold,1,stop,0,lift,0,push,0
Q3,vacate,have,0,half,0,stop,0,leave,1,turn,0,join,0
Q4,whimsical,fanciful,1,scary,0,boring,0,sad,0,green,0,slow,0
Q5,opt,catch,0,fold,0,squeak,0,brush,0,choose,1,soften,0
Q6,esteem,fish,0,sorrow,0,hatred,0,dark,0,bright,0,respect,1
