,Question,A1,V1,A2,V2,A3,V3,A4,V4,A5,V5,A6,V6
Q1,8 x 5,35,0,40,1,42,0,50,0,55,0,32,0
Q2,9 x 3,21,0,13,0,27,1,28,0,24,0,18,0
Q3,7 x 6,36,0,21,0,49,0,42,1,48,0,35,0
Q4,6 x 3,18,1,12,0,24,0,19,0,15,0,32,0
Q5,5 x 9,27,0,35,0,50,0,54,0,45,1,44,0
Q6,4 x 8,23,0,36,0,40,0,27,0,30,0,32,1
